[gd_scene load_steps=5 format=2]

[ext_resource path="res://assets/fonts/vegur/Vegur-Regular.otf" type="DynamicFontData" id=1]
[ext_resource path="res://assets/shaders/vignette.tres" type="Shader" id=2]

[sub_resource type="ShaderMaterial" id=1]
shader = ExtResource( 2 )
shader_param/vignette_intensity = 0.4
shader_param/vignette_opacity = 0.5
shader_param/vignette_rgb = Color( 1, 0, 0, 1 )

[sub_resource type="DynamicFont" id=2]
size = 18
use_filter = true
font_data = ExtResource( 1 )

[node name="MissingAssets" type="Control"]
anchor_right = 1.0
anchor_bottom = 1.0

[node name="Background" type="ColorRect" parent="."]
material = SubResource( 1 )
anchor_right = 1.0
anchor_bottom = 1.0

[node name="Message" type="Label" parent="."]
anchor_right = 1.0
anchor_bottom = 1.0
custom_fonts/font = SubResource( 2 )
text = "Hey there!
Some assets seem to be missing.
They will be replaced by fallback assets."
align = 1
valign = 1
