[gd_resource type="DynamicFont" load_steps=2 format=2]

[ext_resource path="res://assets/fonts/vegur/Vegur-Regular.otf" type="DynamicFontData" id=1]

[resource]
size = 35
use_filter = true
font_data = ExtResource( 1 )
